<?xml version="1.0" encoding="UTF-8"?>
<session version="1.0">
<refactoring accessors="true" comment="Delete element from project &apos;stringsplit&apos;&#x0A;- Original project: &apos;stringsplit&apos;&#x0A;- Original element: &apos;stringsplit.main.java&apos;" description="Delete element" element1="/src&lt;stringsplit{main.java" elements="1" flags="589830" id="org.eclipse.jdt.ui.delete" resources="0" stamp="1406129949316" subPackages="false" version="1.0"/>
</session>